…
  return(resulted_dataset)
}
```

In order to demonstrate my function, I will use different datasets,
columns, and patterns as well. Here it goes:

``` r
library(datateachr)

print(extract_from_column(building_permits, address, "BC .*") %>% select(address, added_col_1)) # basic usage, extract a pattern from a string column. I only show the extracted column and the resource column here for the sake of the reader.
```

    ## # A tibble: 20,680 × 2
    ##    address                                       added_col_1
    ##    <chr>                                         <chr>      
    ##  1 4378 W 9TH AVENUE, Vancouver, BC V6R 2C7      BC V6R 2C7 
    ##  2 1111 RICHARDS STREET, Vancouver, BC V1V 1V1   BC V1V 1V1 
    ##  3 3732 W 12TH AVENUE, Vancouver, BC V6R 2N6     BC V6R 2N6 
    ##  4 88 W PENDER STREET, Vancouver, BC V6B 6N9     BC V6B 6N9 
    ##  5 492 E 62ND AVENUE, Vancouver, BC V5X 2G1      BC V5X 2G1 
    ##  6 3332 W 28TH AVENUE, Vancouver, BC V6S 1R9     BC V6S 1R9 
    ##  7 2873 W 33RD AVENUE, Vancouver, BC V6N 2G3     BC V6N 2G3 
    ##  8 3579 E 26TH AVENUE, Vancouver, BC V5R 1M5     BC V5R 1M5 
    ##  9 620 CARDERO STREET, Vancouver, BC V1V 1V1     BC V1V 1V1 
    ## 10 1868 W 5TH AVENUE #409, Vancouver, BC V6J 1P3 BC V6J 1P3 
    ## # ℹ 20,670 more rows

``` r
print(extract_from_column(steam_games, original_price, "\\d+\\.")%>%select(original_price, added_col_1)) # extraction of the decimal part of a double column, I only show the extracted column and the resource column here for the sake of the reader. !!! For this method since 0 is 0 in double as well, it cannot find the . hence it cannot extract the pattern
```

    ## # A tibble: 40,833 × 2
    ##    original_price added_col_1
    ##             <dbl> <chr>      
    ##  1           20.0 19.        
    ##  2           30.0 29.        
    ##  3           40.0 39.        
    ##  4           45.0 44.        
    ##  5            0   <NA>       
    ##  6           NA   <NA>       
    ##  7           60.0 59.        
    ##  8           15.0 14.        
    ##  9           30.0 29.        
    ## 10           50.0 49.        
    ## # ℹ 40,823 more rows

``` r
print(extract_from_column(steam_games, all_reviews, "\\(.*\\)", "\\d+%")%>%select(all_reviews, added_col_1, added_col_2)) # extraction of the multiple parts of a string column, I only show the extracted columns and the resource column here for the sake of the reader.
```

    ## # A tibble: 40,833 × 3
    ##    all_reviews                                           added_col_1 added_col_2
    ##    <chr>                                                 <chr>       <chr>      
    ##  1 Very Positive,(42,550),- 92% of the 42,550 user revi… (42,550)    92%        
    ##  2 Mixed,(836,608),- 49% of the 836,608 user reviews fo… (836,608)   49%        
    ##  3 Mostly Positive,(7,030),- 71% of the 7,030 user revi… (7,030)     71%        
    ##  4 Mixed,(167,115),- 61% of the 167,115 user reviews fo… (167,115)   61%        
    ##  5 Mostly Positive,(11,481),- 74% of the 11,481 user re… (11,481)    74%        
    ##  6 NaN                                                   <NA>        <NA>       
    ##  7 Very Positive,(9,645),- 92% of the 9,645 user review… (9,645)     92%        
    ##  8 Very Positive,(23,763),- 91% of the 23,763 user revi… (23,763)    91%        
    ##  9 Very Positive,(12,127),- 85% of the 12,127 user revi… (12,127)    85%        
    ## 10 Mixed,(904),- 44% of the 904 user reviews for this g… (904)       44%        
    ## # ℹ 40,823 more rows
…
